<svg width="18" height="19" viewBox="0 0 18 19" fill="none" xmlns="http://www.w3.org/2000/svg">
<path d="M8.46589 0.0105799C3.7262 0.241958 -0.014093 4.28891 0.000285456 9.15383C0.00466338 10.6356 0.353566 12.0341 0.96905 13.2699L0.0240636 17.9728C-0.0270551 18.2272 0.196734 18.45 0.443228 18.3901L4.93802 17.2983C6.0928 17.8881 7.38987 18.2287 8.76261 18.2502C13.607 18.326 17.6464 14.3823 17.7974 9.41733C17.9593 4.09525 13.675 -0.243769 8.46589 0.0105799ZM13.8291 14.1782C12.5128 15.5278 10.7626 16.271 8.90107 16.271C7.81105 16.271 6.76748 16.0203 5.79923 15.5258L5.17327 15.2061L2.4175 15.8755L2.99757 12.9885L2.68919 12.3693C2.18654 11.3601 1.93168 10.2687 1.93168 9.12558C1.93168 7.21696 2.65661 5.42261 3.97295 4.07298C5.27752 2.73545 7.05625 1.98011 8.9012 1.98011C10.7628 1.98015 12.5129 2.72339 13.8292 4.07294C15.1455 5.42252 15.8705 7.21687 15.8705 9.12545C15.8705 11.017 15.1337 12.8407 13.8291 14.1782Z" fill="white"/>
<path d="M13.2213 11.1054L11.4972 10.5979C11.2705 10.5312 11.0264 10.5971 10.8613 10.7696L10.4397 11.21C10.2619 11.3957 9.99213 11.4554 9.75684 11.3578C8.94126 11.0194 7.22563 9.45547 6.7875 8.67319C6.66109 8.44754 6.682 8.16542 6.8372 7.95952L7.20529 7.47129C7.3495 7.28 7.37993 7.0231 7.28456 6.80197L6.5592 5.11997C6.38546 4.71711 5.88333 4.59984 5.55528 4.88428C5.0741 5.30154 4.50317 5.9356 4.43376 6.63805C4.3114 7.87653 4.82945 9.43774 6.78848 11.3123C9.0517 13.478 10.8641 13.7642 12.0441 13.4711C12.7134 13.3049 13.2483 12.6386 13.5858 12.093C13.816 11.721 13.6343 11.227 13.2213 11.1054Z" fill="white"/>
</svg>
