<svg width="48" height="48" viewBox="0 0 48 48" fill="none" xmlns="http://www.w3.org/2000/svg">
    <g>
        <path d="M46.3573 12.9897L34.1287 0.282937C33.9546 0.102187 33.7144 0 33.4635 0H15.2376C13.1979 0 11.5384 1.65881 11.5384 3.69769V16.6154H4.15212C2.62605 16.6154 1.38452 17.8566 1.38452 19.3822V33.2332C1.38452 34.7588 2.62605 36 4.15212 36H11.5384V44.3088C11.5384 46.3441 13.1979 48 15.2376 48H42.9161C44.9559 48 46.6153 46.345 46.6153 44.3108V13.6298C46.6153 13.3912 46.5228 13.1618 46.3573 12.9897ZM33.6923 2.49197L43.7309 12.9231H33.6923V2.49197ZM4.15212 34.1539C3.64399 34.1539 3.23074 33.7409 3.23074 33.2332V19.3822C3.23074 18.8746 3.64408 18.4615 4.15212 18.4615H29.0786C29.5867 18.4615 29.9999 18.8746 29.9999 19.3822V33.2332C29.9999 33.7409 29.5866 34.1539 29.0786 34.1539H4.15212ZM44.7691 44.3108C44.7691 45.3271 43.9378 46.1539 42.9161 46.1539H15.2376C14.2158 46.1539 13.3845 45.3262 13.3845 44.3089V36H29.0786C30.6046 36 31.8461 34.7588 31.8461 33.2332V19.3822C31.8461 17.8566 30.6046 16.6154 29.0786 16.6154H13.3845V3.69769C13.3845 2.67666 14.2158 1.84612 15.2376 1.84612H31.8461V13.8461C31.8461 14.3559 32.2594 14.7692 32.7691 14.7692H44.7691V44.3108Z"
              fill="#72929F"></path>
        <path d="M9.53516 23C10.2218 23 10.8018 23.2333 11.2752 23.7C11.7485 24.1667 11.9852 24.7333 11.9852 25.4C11.9852 26.0667 11.7485 26.6333 11.2752 27.1C10.8018 27.5667 10.2218 27.8 9.53516 27.8H8.48516V30H6.88516V23H9.53516ZM9.53516 26.3C9.78182 26.3 9.98516 26.2133 10.1452 26.04C10.3052 25.8667 10.3852 25.6533 10.3852 25.4C10.3852 25.1467 10.3052 24.9333 10.1452 24.76C9.98516 24.5867 9.78182 24.5 9.53516 24.5H8.48516V26.3H9.53516ZM16.6836 23H18.2836V30H17.0836L14.3836 26.2V30H12.7836V23H13.9836L16.6836 26.8V23ZM26.4128 26.1V26.7C26.4128 27.7467 26.0861 28.5833 25.4328 29.21C24.7861 29.83 23.9628 30.14 22.9628 30.14C21.8761 30.14 20.9728 29.79 20.2528 29.09C19.5395 28.39 19.1828 27.53 19.1828 26.51C19.1828 25.49 19.5361 24.6267 20.2428 23.92C20.9561 23.2133 21.8261 22.86 22.8528 22.86C23.5061 22.86 24.1028 23.0067 24.6428 23.3C25.1895 23.5933 25.6128 23.98 25.9128 24.46L24.5528 25.24C24.3995 25 24.1695 24.8033 23.8628 24.65C23.5628 24.4967 23.2228 24.42 22.8428 24.42C22.2495 24.42 21.7561 24.6167 21.3628 25.01C20.9761 25.4033 20.7828 25.9067 20.7828 26.52C20.7828 27.1267 20.9828 27.6233 21.3828 28.01C21.7828 28.39 22.3161 28.58 22.9828 28.58C23.9095 28.58 24.5061 28.22 24.7728 27.5H22.9028V26.1H26.4128Z"
              fill="#72929F"></path>
    </g>
    <defs>
        <linearGradient id="paint0_linear" x1="24" y1="0" x2="24" y2="48" gradientUnits="userSpaceOnUse">

            <stop offset="1" stop-color="white" stop-opacity="0"></stop>
        </linearGradient>
    </defs>
</svg>
